{
  "artifactGenerations" : [ ],
  "artifactId" : "project-testing",
  "groupId" : "groupIdForProjectTesting",
  "metamodelDependencies" : [ ],
  "projectDependencies" : [ ],
  "projectId" : "PROD-40514911",
  "projectStructureVersion" : {
    "extensionVersion" : 2,
    "version" : 12
  }
}